LED on/off

....-............
.................
....l.L..........
......s.s........
====== s ========
......s.s........
.................
....r...r........
....+............

+ 	positive black wire to 9v
- 	negative red wire to 9v
Ll	red LED
s	push button switch
r	2k7 resistor

